{
    "baseUrl": "{{localBaseUrl}}",
    "key": "atlassian-connect-jira-addon",
    "description": "Add-on which demonstrates usage of Atlassian Connect in JIRA",
    "name": "Example Connect JIRA Add-on",
    "vendor": {
        "name": "Atlassian",
        "url": "http://www.atlassian.com/"
    },
    "enableLicensing": true,
    "authentication": {
        "type": "jwt"
    },
    "lifecycle": {
        "installed": "/installed"
    },
    "modules": {
        "webItems": [
            {
                "name": {
                    "value": "My dropdown"
                },
                "location": "system.top.navigation.bar",
                "url": "/hello-world",
                "key": "dropdown",
                "tooltip": {
                    "value": "My JIRA Connect Add-on",
                    "i18n": "foo.bar"
                },
                "key": "my-dropdown"
            },
            {
                "name": { "value": "A: First item" },
                "url": "/hello-world",
                "key": "dropdown-1-1",
                "location": "my-dropdown/dropdown-section-1",
                "weight": 1
            },
            {
                "name": { "value": "A: Second item" },
                "url": "/hello-world",
                "key": "dropdown-1-2",
                "location": "my-dropdown/dropdown-section-1",
                "weight": 2
            },
            {
                "name": { "value": "B: First item" },
                "url": "/hello-world",
                "key": "dropdown-2-1",
                "location": "my-dropdown/dropdown-section-2",
                "weight": 1
            },
            {
                "name": { "value": "B: Second item" },
                "url": "/hello-world",
                "key": "dropdown-2-2",
                "location": "my-dropdown/dropdown-section-2",
                "weight": 2
            }
        ],
        "webSections": [
            {
                "name": { "value": "Section A" },
                "location": "my-dropdown",
                "key": "dropdown-section-1"
            },
            {
                "name": { "value": "Section B" },
                "location": "my-dropdown",
                "key": "dropdown-section-2"
            }
        ],
        "webPanels": [
            {
                "name": {
                    "value": "Project Banner"
                },
                "location": "atl.jira.view.issue.right.context",
                "key": "issue-panel-1",
                "url": "/hello-world"
            }
        ],
        "generalPages": [
            {
                "location": "system.top.navigation.bar",
                "name": {
                    "value": "Hello World Webitem"
                },
                "key": "hello-world",
                "url": "/hello-world",
                "conditions": [
                    {
                        "condition": "user_is_logged_in"
                    }
                ]
            }
        ],
        "adminPages": [
            {
                "name": {
                    "value": "Config Admin Page"
                },
                "url": "/hello-world",
                "key": "admin"
            }
        ],
        "configurePage": {
            "name": { 
                "value": "Add-on Configuration"
            },
            "key": "configure",
            "url": "/configure",
            "location": "system.admin/globalsettings"
        },
        "jiraProjectAdminTabPanels": [
            {
                "location": "projectgroup4",
                "key": "project-admin-tab",
                "url": "/hello-world?xox=test&width=&height=})},alert(0));x({k:x({x:{//",
                "weight": 100,
                "name": {
                   "value": "Admin Panel"
                }
            }
        ],
        "jiraProfileTabPanels": [
            {
                "key": "profile-tab",
                "url": "/profile-tab?profileUserKey={profileUser.key}&profileUserName={profileUser.name}",
                "name": {
                   "value": "Add-on Profile Tab"
                }
            }
        ],
        "jiraSearchRequestViews": [
            {
              "url": "/search-view",
              "key": "search-view",
              "weight": 100,
              "description": {
                  "value": "Example search request view"
              },
              "name": {
                  "value": "My Search View",
                  "i18n": "my.search.view"
              }
            }
        ]
    }
}
